%YAML 1.1
%TAG !u! tag:unity3d.com,2011:
--- !u!74 &7400000
AnimationClip:
  m_ObjectHideFlags: 0
  m_CorrespondingSourceObject: {fileID: 0}
  m_PrefabInstance: {fileID: 0}
  m_PrefabAsset: {fileID: 0}
  m_Name: Dijitak
  serializedVersion: 6
  m_Legacy: 0
  m_Compressed: 0
  m_UseHighQualityCurve: 1
  m_RotationCurves: []
  m_CompressedRotationCurves: []
  m_EulerCurves: []
  m_PositionCurves: []
  m_ScaleCurves: []
  m_FloatCurves: []
  m_PPtrCurves:
  - curve:
    - time: 0
      value: {fileID: 21300000, guid: 964e5b89d0474a845b77efe72bf562df, type: 3}
    - time: 0.016666668
      value: {fileID: 21300000, guid: a2479ca585d85544da0408f875c1d4ee, type: 3}
    - time: 0.033333335
      value: {fileID: 21300000, guid: 12dc51c56e9ed044188e1ce0926675b2, type: 3}
    - time: 0.05
      value: {fileID: 21300000, guid: 41f995d9020ecc4419bbb962ab48cc89, type: 3}
    - time: 0.06666667
      value: {fileID: 21300000, guid: 9319f410f5cf25f45bc1d99b37a1f87c, type: 3}
    - time: 0.083333336
      value: {fileID: 21300000, guid: 55d7271b7cec2cc4c80da228680c9434, type: 3}
    - time: 0.1
      value: {fileID: 21300000, guid: d575d72627e5dc04f8b1fff5d75163c9, type: 3}
    - time: 0.11666667
      value: {fileID: 21300000, guid: 7180c1f395a023548ba1bb681247a8fa, type: 3}
    - time: 0.13333334
      value: {fileID: 21300000, guid: fb1a977733c43ad41a1002beb5660f15, type: 3}
    - time: 0.15
      value: {fileID: 21300000, guid: dc91d674e793fdc40bda68f81bb0a2ac, type: 3}
    - time: 0.16666667
      value: {fileID: 21300000, guid: d49020ce57b719d47bfaf777f648d572, type: 3}
    - time: 0.18333334
      value: {fileID: 21300000, guid: 87202d6da8a6d594babc43922e37eb6f, type: 3}
    - time: 0.2
      value: {fileID: 21300000, guid: bd448e5857294a24ea1aa7beb5f3d9d6, type: 3}
    - time: 0.21666667
      value: {fileID: 21300000, guid: f00130681f761344b96ea2ff579b4cc4, type: 3}
    - time: 0.23333333
      value: {fileID: 21300000, guid: 84968f8596556214294fde664bfa9d9e, type: 3}
    - time: 0.25
      value: {fileID: 21300000, guid: 2cab9e7cf4eaea849a83849ad73bd432, type: 3}
    - time: 0.26666668
      value: {fileID: 21300000, guid: 23d434d7f3e89754f8531e5103cb48c6, type: 3}
    - time: 0.28333333
      value: {fileID: 21300000, guid: 97f735029a8084d4892294f6001ff755, type: 3}
    - time: 0.3
      value: {fileID: 21300000, guid: c486987d55c5f70469bbb8187c43cf64, type: 3}
    - time: 0.31666666
      value: {fileID: 21300000, guid: e6a25e55e7964ae499e57fda2591e1fc, type: 3}
    - time: 0.33333334
      value: {fileID: 21300000, guid: 5f30db4dcffa15347aea0f469d5d6064, type: 3}
    - time: 0.35
      value: {fileID: 21300000, guid: 93377135500839f4686a597a69884f08, type: 3}
    - time: 0.36666667
      value: {fileID: 21300000, guid: 444ab05767c29654a8cdfa24c61ab4b7, type: 3}
    - time: 0.38333333
      value: {fileID: 21300000, guid: 1a0c301f036fe274eb1ae9dc4c0143d6, type: 3}
    - time: 0.4
      value: {fileID: 21300000, guid: ce221661571506240a4b8efae82f9713, type: 3}
    - time: 0.41666666
      value: {fileID: 21300000, guid: 7e6c7ecd6a747ee4f9364f572d6a3080, type: 3}
    - time: 0.43333334
      value: {fileID: 21300000, guid: 7d3ed22dc60ce38459f432055863aeb7, type: 3}
    - time: 0.45
      value: {fileID: 21300000, guid: 1e0282e451fc9c049bff33e04fc57418, type: 3}
    - time: 0.46666667
      value: {fileID: 21300000, guid: 993e5c572f5b8404db4b489fd6ca2161, type: 3}
    - time: 0.48333332
      value: {fileID: 21300000, guid: f26b82bcd729d7d4eb6413beef97818f, type: 3}
    - time: 0.5
      value: {fileID: 21300000, guid: 4baf3a9142379084f8f36fd0f895f2fb, type: 3}
    - time: 0.51666665
      value: {fileID: 21300000, guid: d98a2e2d53c17004f90308d9ad6a6021, type: 3}
    - time: 0.53333336
      value: {fileID: 21300000, guid: ec773cf23ad83424ab6eb248944a72a4, type: 3}
    - time: 0.55
      value: {fileID: 21300000, guid: 0accd507da2b6a84a86b68d5380e4dfc, type: 3}
    - time: 0.56666666
      value: {fileID: 21300000, guid: 5fd62024177f7a04597e049d71f0b4bd, type: 3}
    - time: 0.5833333
      value: {fileID: 21300000, guid: 076a9cda711acb043ba77cd1464bc909, type: 3}
    - time: 0.6
      value: {fileID: 21300000, guid: 63aa26b3970a5444db403dd91e38b784, type: 3}
    - time: 0.6166667
      value: {fileID: 21300000, guid: 6aad707b053d61847b952af3fc41fea3, type: 3}
    - time: 0.6333333
      value: {fileID: 21300000, guid: b96f884f621f5e14b9da5787f633e685, type: 3}
    - time: 0.65
      value: {fileID: 21300000, guid: 8d359e91e6a6aba448792fb7fc1a7e1a, type: 3}
    - time: 0.6666667
      value: {fileID: 21300000, guid: 0e68b31bc16a5fd4084ff4d1848b0177, type: 3}
    - time: 0.68333334
      value: {fileID: 21300000, guid: 4d0ce777c9b081d4e953269ffc98032e, type: 3}
    - time: 0.7
      value: {fileID: 21300000, guid: 37dd7ec4234334542bbbd83546d6ae5f, type: 3}
    - time: 0.71666664
      value: {fileID: 21300000, guid: 9c928bef812a02849b06738a4bceb52b, type: 3}
    - time: 0.73333335
      value: {fileID: 21300000, guid: b75b2c3689350254f88d88dd6c2df833, type: 3}
    - time: 0.75
      value: {fileID: 21300000, guid: 7a215fa8b44f41b4fbd44efcd330a887, type: 3}
    - time: 0.76666665
      value: {fileID: 21300000, guid: f67f4eb86aadb0d48963995e63b9481c, type: 3}
    - time: 0.78333336
      value: {fileID: 21300000, guid: 33a6b8ec542092842a86720e19032471, type: 3}
    - time: 0.8
      value: {fileID: 21300000, guid: efd54a9b0716aff45ad14024cb619150, type: 3}
    - time: 0.81666666
      value: {fileID: 21300000, guid: 3161944833d577b48a3efba28635fdb5, type: 3}
    - time: 0.8333333
      value: {fileID: 21300000, guid: 03ea5bc000688a444905696082ab0957, type: 3}
    - time: 0.85
      value: {fileID: 21300000, guid: add04e2c4ee517242ae3acc0e0a4b5f8, type: 3}
    - time: 0.8666667
      value: {fileID: 21300000, guid: 65d7acf2190116c4bad4a22ede0b4fd2, type: 3}
    - time: 0.8833333
      value: {fileID: 21300000, guid: 838c4d763b765224b94f0a35b11ffbda, type: 3}
    - time: 0.9
      value: {fileID: 21300000, guid: 981baae00d8b0754da4f0e95484dcdd6, type: 3}
    - time: 0.9166667
      value: {fileID: 21300000, guid: 67bda33ff3b06e24aa43d72f0a0a6fd0, type: 3}
    - time: 0.93333334
      value: {fileID: 21300000, guid: 17dd6ee0c3f127d4dbd53528a3979405, type: 3}
    - time: 0.95
      value: {fileID: 21300000, guid: 061e8bb1ea9b20e4689deb9dc67541f9, type: 3}
    - time: 0.96666664
      value: {fileID: 21300000, guid: 0ba44e6249d109c4aa309781b4950b42, type: 3}
    - time: 0.98333335
      value: {fileID: 21300000, guid: e58dcc5f997a1b04e999df93ee984790, type: 3}
    attribute: m_Sprite
    path: 
    classID: 212
    script: {fileID: 0}
  m_SampleRate: 60
  m_WrapMode: 0
  m_Bounds:
    m_Center: {x: 0, y: 0, z: 0}
    m_Extent: {x: 0, y: 0, z: 0}
  m_ClipBindingConstant:
    genericBindings:
    - serializedVersion: 2
      path: 0
      attribute: 0
      script: {fileID: 0}
      typeID: 212
      customType: 23
      isPPtrCurve: 1
    pptrCurveMapping:
    - {fileID: 21300000, guid: 964e5b89d0474a845b77efe72bf562df, type: 3}
    - {fileID: 21300000, guid: a2479ca585d85544da0408f875c1d4ee, type: 3}
    - {fileID: 21300000, guid: 12dc51c56e9ed044188e1ce0926675b2, type: 3}
    - {fileID: 21300000, guid: 41f995d9020ecc4419bbb962ab48cc89, type: 3}
    - {fileID: 21300000, guid: 9319f410f5cf25f45bc1d99b37a1f87c, type: 3}
    - {fileID: 21300000, guid: 55d7271b7cec2cc4c80da228680c9434, type: 3}
    - {fileID: 21300000, guid: d575d72627e5dc04f8b1fff5d75163c9, type: 3}
    - {fileID: 21300000, guid: 7180c1f395a023548ba1bb681247a8fa, type: 3}
    - {fileID: 21300000, guid: fb1a977733c43ad41a1002beb5660f15, type: 3}
    - {fileID: 21300000, guid: dc91d674e793fdc40bda68f81bb0a2ac, type: 3}
    - {fileID: 21300000, guid: d49020ce57b719d47bfaf777f648d572, type: 3}
    - {fileID: 21300000, guid: 87202d6da8a6d594babc43922e37eb6f, type: 3}
    - {fileID: 21300000, guid: bd448e5857294a24ea1aa7beb5f3d9d6, type: 3}
    - {fileID: 21300000, guid: f00130681f761344b96ea2ff579b4cc4, type: 3}
    - {fileID: 21300000, guid: 84968f8596556214294fde664bfa9d9e, type: 3}
    - {fileID: 21300000, guid: 2cab9e7cf4eaea849a83849ad73bd432, type: 3}
    - {fileID: 21300000, guid: 23d434d7f3e89754f8531e5103cb48c6, type: 3}
    - {fileID: 21300000, guid: 97f735029a8084d4892294f6001ff755, type: 3}
    - {fileID: 21300000, guid: c486987d55c5f70469bbb8187c43cf64, type: 3}
    - {fileID: 21300000, guid: e6a25e55e7964ae499e57fda2591e1fc, type: 3}
    - {fileID: 21300000, guid: 5f30db4dcffa15347aea0f469d5d6064, type: 3}
    - {fileID: 21300000, guid: 93377135500839f4686a597a69884f08, type: 3}
    - {fileID: 21300000, guid: 444ab05767c29654a8cdfa24c61ab4b7, type: 3}
    - {fileID: 21300000, guid: 1a0c301f036fe274eb1ae9dc4c0143d6, type: 3}
    - {fileID: 21300000, guid: ce221661571506240a4b8efae82f9713, type: 3}
    - {fileID: 21300000, guid: 7e6c7ecd6a747ee4f9364f572d6a3080, type: 3}
    - {fileID: 21300000, guid: 7d3ed22dc60ce38459f432055863aeb7, type: 3}
    - {fileID: 21300000, guid: 1e0282e451fc9c049bff33e04fc57418, type: 3}
    - {fileID: 21300000, guid: 993e5c572f5b8404db4b489fd6ca2161, type: 3}
    - {fileID: 21300000, guid: f26b82bcd729d7d4eb6413beef97818f, type: 3}
    - {fileID: 21300000, guid: 4baf3a9142379084f8f36fd0f895f2fb, type: 3}
    - {fileID: 21300000, guid: d98a2e2d53c17004f90308d9ad6a6021, type: 3}
    - {fileID: 21300000, guid: ec773cf23ad83424ab6eb248944a72a4, type: 3}
    - {fileID: 21300000, guid: 0accd507da2b6a84a86b68d5380e4dfc, type: 3}
    - {fileID: 21300000, guid: 5fd62024177f7a04597e049d71f0b4bd, type: 3}
    - {fileID: 21300000, guid: 076a9cda711acb043ba77cd1464bc909, type: 3}
    - {fileID: 21300000, guid: 63aa26b3970a5444db403dd91e38b784, type: 3}
    - {fileID: 21300000, guid: 6aad707b053d61847b952af3fc41fea3, type: 3}
    - {fileID: 21300000, guid: b96f884f621f5e14b9da5787f633e685, type: 3}
    - {fileID: 21300000, guid: 8d359e91e6a6aba448792fb7fc1a7e1a, type: 3}
    - {fileID: 21300000, guid: 0e68b31bc16a5fd4084ff4d1848b0177, type: 3}
    - {fileID: 21300000, guid: 4d0ce777c9b081d4e953269ffc98032e, type: 3}
    - {fileID: 21300000, guid: 37dd7ec4234334542bbbd83546d6ae5f, type: 3}
    - {fileID: 21300000, guid: 9c928bef812a02849b06738a4bceb52b, type: 3}
    - {fileID: 21300000, guid: b75b2c3689350254f88d88dd6c2df833, type: 3}
    - {fileID: 21300000, guid: 7a215fa8b44f41b4fbd44efcd330a887, type: 3}
    - {fileID: 21300000, guid: f67f4eb86aadb0d48963995e63b9481c, type: 3}
    - {fileID: 21300000, guid: 33a6b8ec542092842a86720e19032471, type: 3}
    - {fileID: 21300000, guid: efd54a9b0716aff45ad14024cb619150, type: 3}
    - {fileID: 21300000, guid: 3161944833d577b48a3efba28635fdb5, type: 3}
    - {fileID: 21300000, guid: 03ea5bc000688a444905696082ab0957, type: 3}
    - {fileID: 21300000, guid: add04e2c4ee517242ae3acc0e0a4b5f8, type: 3}
    - {fileID: 21300000, guid: 65d7acf2190116c4bad4a22ede0b4fd2, type: 3}
    - {fileID: 21300000, guid: 838c4d763b765224b94f0a35b11ffbda, type: 3}
    - {fileID: 21300000, guid: 981baae00d8b0754da4f0e95484dcdd6, type: 3}
    - {fileID: 21300000, guid: 67bda33ff3b06e24aa43d72f0a0a6fd0, type: 3}
    - {fileID: 21300000, guid: 17dd6ee0c3f127d4dbd53528a3979405, type: 3}
    - {fileID: 21300000, guid: 061e8bb1ea9b20e4689deb9dc67541f9, type: 3}
    - {fileID: 21300000, guid: 0ba44e6249d109c4aa309781b4950b42, type: 3}
    - {fileID: 21300000, guid: e58dcc5f997a1b04e999df93ee984790, type: 3}
  m_AnimationClipSettings:
    serializedVersion: 2
    m_AdditiveReferencePoseClip: {fileID: 0}
    m_AdditiveReferencePoseTime: 0
    m_StartTime: 0
    m_StopTime: 1
    m_OrientationOffsetY: 0
    m_Level: 0
    m_CycleOffset: 0
    m_HasAdditiveReferencePose: 0
    m_LoopTime: 1
    m_LoopBlend: 0
    m_LoopBlendOrientation: 0
    m_LoopBlendPositionY: 0
    m_LoopBlendPositionXZ: 0
    m_KeepOriginalOrientation: 0
    m_KeepOriginalPositionY: 1
    m_KeepOriginalPositionXZ: 0
    m_HeightFromFeet: 0
    m_Mirror: 0
  m_EditorCurves: []
  m_EulerEditorCurves: []
  m_HasGenericRootTransform: 0
  m_HasMotionFloatCurves: 0
  m_Events:
  - time: 0.98333335
    functionName: DijitakDone
    data: 
    objectReferenceParameter: {fileID: 0}
    floatParameter: 0
    intParameter: 0
    messageOptions: 0
