%YAML 1.1
%TAG !u! tag:unity3d.com,2011:
--- !u!74 &7400000
AnimationClip:
  m_ObjectHideFlags: 0
  m_CorrespondingSourceObject: {fileID: 0}
  m_PrefabInstance: {fileID: 0}
  m_PrefabAsset: {fileID: 0}
  m_Name: Relaxing
  serializedVersion: 6
  m_Legacy: 0
  m_Compressed: 0
  m_UseHighQualityCurve: 1
  m_RotationCurves: []
  m_CompressedRotationCurves: []
  m_EulerCurves: []
  m_PositionCurves: []
  m_ScaleCurves: []
  m_FloatCurves: []
  m_PPtrCurves:
  - curve:
    - time: 0
      value: {fileID: 21300000, guid: 48367a3cfced8e944a10b3c64d1ee663, type: 3}
    - time: 0.033333335
      value: {fileID: 21300000, guid: 0b02a1ead50a63141895eebd5c94f396, type: 3}
    - time: 0.06666667
      value: {fileID: 21300000, guid: 7670fc857cc523449a1ffa64eb5486d1, type: 3}
    - time: 0.1
      value: {fileID: 21300000, guid: d201456a102285e48a6dc966f02feb2e, type: 3}
    - time: 0.13333334
      value: {fileID: 21300000, guid: 60e4e26647aa52d41a0f312303478c50, type: 3}
    - time: 0.16666667
      value: {fileID: 21300000, guid: efbd86e47fbdc3148ab918084f70bff0, type: 3}
    - time: 0.2
      value: {fileID: 21300000, guid: 899e6cd57bfc6f34c87250310f558e79, type: 3}
    - time: 0.23333333
      value: {fileID: 21300000, guid: 2d5ecb9893a477f4a863cf5baf79bc5f, type: 3}
    - time: 0.26666668
      value: {fileID: 21300000, guid: 908fba8b511f9a847890e48d06051970, type: 3}
    - time: 0.3
      value: {fileID: 21300000, guid: c22420dfeb490644f9e8c9b7849c024b, type: 3}
    - time: 0.33333334
      value: {fileID: 21300000, guid: 9192b165d94024c4ca508c9787933c1f, type: 3}
    - time: 0.36666667
      value: {fileID: 21300000, guid: d46daaa3bab871b4f85611e4064ca0bc, type: 3}
    - time: 0.4
      value: {fileID: 21300000, guid: 43bb2987b7cbe1347b6cffe32e86778f, type: 3}
    - time: 0.43333334
      value: {fileID: 21300000, guid: 570e8c5c02b485442b1752b9990e7665, type: 3}
    - time: 0.46666667
      value: {fileID: 21300000, guid: 68d2f4fada65e92428cd0cbc6097cffa, type: 3}
    - time: 0.5
      value: {fileID: 21300000, guid: dd90c92a928c43745b84b35ac64f0dcf, type: 3}
    - time: 0.53333336
      value: {fileID: 21300000, guid: 024e6d7b666e1174282f91906e6d71b3, type: 3}
    - time: 0.56666666
      value: {fileID: 21300000, guid: db686d4fef7c6c043964272a66b604e0, type: 3}
    - time: 0.6
      value: {fileID: 21300000, guid: c2c71e471646b274c83a4f0fa2b047d0, type: 3}
    - time: 0.6333333
      value: {fileID: 21300000, guid: c2c314be206172047a859eb46f56c134, type: 3}
    - time: 0.6666667
      value: {fileID: 21300000, guid: 4fc15c8866c4ca4438b640b8975589d1, type: 3}
    - time: 0.7
      value: {fileID: 21300000, guid: 5523638625871b340a8af77f3f8cbf91, type: 3}
    - time: 0.73333335
      value: {fileID: 21300000, guid: dc511f2d8b8f981449415952646816ba, type: 3}
    - time: 0.76666665
      value: {fileID: 21300000, guid: 11b6f999fef123948bf68a619486dd31, type: 3}
    - time: 0.8
      value: {fileID: 21300000, guid: 40343f0202fcce94399633e1157b1938, type: 3}
    - time: 0.8333333
      value: {fileID: 21300000, guid: 2e07a398e962d7940acdc05e45ef1840, type: 3}
    - time: 0.8666667
      value: {fileID: 21300000, guid: 3d8e17367a796ab46ab2a5a99fd1a20b, type: 3}
    - time: 0.9
      value: {fileID: 21300000, guid: 891bc936980ebb946be65632a7447745, type: 3}
    - time: 0.93333334
      value: {fileID: 21300000, guid: 85cd6362cb444b744a539c4d1f442192, type: 3}
    - time: 0.96666664
      value: {fileID: 21300000, guid: e5c9e662a54357d4baa5fe8fd08c37d0, type: 3}
    - time: 1
      value: {fileID: 21300000, guid: 750c36d6a7da3de4e8a1c9e247901fc7, type: 3}
    - time: 1.0333333
      value: {fileID: 21300000, guid: 79253358637f7ce45b7f6c2d7a4d61c2, type: 3}
    - time: 1.0666667
      value: {fileID: 21300000, guid: 4698800ca8cadea418aafe53b5f1463c, type: 3}
    - time: 1.1
      value: {fileID: 21300000, guid: c1b5f5e8495c97b41b528466d1baafbf, type: 3}
    - time: 1.1333333
      value: {fileID: 21300000, guid: c0fe45cf86a4b4044a6881b8dc1f1e64, type: 3}
    - time: 1.1666666
      value: {fileID: 21300000, guid: 6ed3feaf5da6a3e4d9a55a37c1db420e, type: 3}
    - time: 1.2
      value: {fileID: 21300000, guid: b6931cb895cd3d44ebc04c29b8e2a93a, type: 3}
    - time: 1.2333333
      value: {fileID: 21300000, guid: d5872547e1349be4492152286b58ac67, type: 3}
    - time: 1.2666667
      value: {fileID: 21300000, guid: 3bca57c6d3cde5745a1aadc423cacdf8, type: 3}
    - time: 1.3
      value: {fileID: 21300000, guid: 4806ff0941fc23943877ce2d7f26447e, type: 3}
    - time: 1.3333334
      value: {fileID: 21300000, guid: c1ae3c49ad58171408b7fc61bf421651, type: 3}
    - time: 1.3666667
      value: {fileID: 21300000, guid: 83f1dc5060707b8468eb79949dfd5f20, type: 3}
    - time: 1.4
      value: {fileID: 21300000, guid: 8083fc437ff5412419d14147e37ff601, type: 3}
    - time: 1.4333333
      value: {fileID: 21300000, guid: 38ff121cf4927b1448c037795116d35b, type: 3}
    - time: 1.4666667
      value: {fileID: 21300000, guid: 1e0b0113b24b6fa47bf39dd8d477e735, type: 3}
    - time: 1.5
      value: {fileID: 21300000, guid: e25e4d979f19c9a4f9f9fb604f44a90b, type: 3}
    - time: 1.5333333
      value: {fileID: 21300000, guid: 96fb19d5392bc3e42a7e89f8907f6b47, type: 3}
    - time: 1.5666667
      value: {fileID: 21300000, guid: 39a322c25259d60469083634b954a2ad, type: 3}
    - time: 1.6
      value: {fileID: 21300000, guid: ab706cd7be3bff24ea424ae081a16508, type: 3}
    - time: 1.6333333
      value: {fileID: 21300000, guid: e783d64d8e9a2a040b8d68e27407992f, type: 3}
    - time: 1.6666666
      value: {fileID: 21300000, guid: 469b1cccaaec69a46a472f869f5cc98c, type: 3}
    - time: 1.7
      value: {fileID: 21300000, guid: 768ab1bfe21733b4680bec3ad0df64e2, type: 3}
    - time: 1.7333333
      value: {fileID: 21300000, guid: 36281a407a55de74bb0fdfd487e733c0, type: 3}
    - time: 1.7666667
      value: {fileID: 21300000, guid: a0e693166e94a80459f48d765156ad66, type: 3}
    - time: 1.8
      value: {fileID: 21300000, guid: 8536d5193ed3787499bb9088da56f3d2, type: 3}
    - time: 1.8333334
      value: {fileID: 21300000, guid: 0b4f531dba481b645aab71dcfed603cd, type: 3}
    - time: 1.8666667
      value: {fileID: 21300000, guid: e5e550d941876d340bef2338211f1d66, type: 3}
    - time: 1.9
      value: {fileID: 21300000, guid: 57083f5783806854a977c328de59c399, type: 3}
    - time: 1.9333333
      value: {fileID: 21300000, guid: d4aa7b4e497a47d41b706a1fb63a487c, type: 3}
    - time: 1.9666667
      value: {fileID: 21300000, guid: 40ae2df0eb7c58d4897e9b7c933104b4, type: 3}
    - time: 2
      value: {fileID: 21300000, guid: 427fbc9d65682b143a575debed4c9ed0, type: 3}
    - time: 2.0333333
      value: {fileID: 21300000, guid: 731f917f8e71c0e4bb063fe572839bf3, type: 3}
    - time: 2.0666666
      value: {fileID: 21300000, guid: ddacde6d836e0764ab311375170c5851, type: 3}
    - time: 2.1
      value: {fileID: 21300000, guid: fd5e9604e4c549743a3b20431ca41e07, type: 3}
    - time: 2.1333334
      value: {fileID: 21300000, guid: ec73eda74dafc7e4190cb8d1f74e0d46, type: 3}
    - time: 2.1666667
      value: {fileID: 21300000, guid: a5fbcac1c9cfcfe4eaf145f5392f290f, type: 3}
    - time: 2.2
      value: {fileID: 21300000, guid: 9836d46077bb855489ad0ff80b0b7663, type: 3}
    - time: 2.2333333
      value: {fileID: 21300000, guid: 07f01bdb72cef8248ab1b4dce328edf7, type: 3}
    - time: 2.2666667
      value: {fileID: 21300000, guid: 6ea2a83257b2b2b42b9b27409d3fc27f, type: 3}
    - time: 2.3
      value: {fileID: 21300000, guid: f45f852397791a047ba1e78742bb1537, type: 3}
    - time: 2.3333333
      value: {fileID: 21300000, guid: 0862c6cc5c5cf2e41bb535c8487d712c, type: 3}
    - time: 2.3666666
      value: {fileID: 21300000, guid: ceff010a4c73d034fa375f10ecb95f74, type: 3}
    - time: 2.4
      value: {fileID: 21300000, guid: 33e06f0f85cb3ea418005ad0adbc8c1c, type: 3}
    - time: 2.4333334
      value: {fileID: 21300000, guid: e62a581d49cb71844b815012210cb7b0, type: 3}
    - time: 2.4666667
      value: {fileID: 21300000, guid: 3bd96e49080cc234eba73d26d2b9e3c5, type: 3}
    - time: 2.5
      value: {fileID: 21300000, guid: 966e9207cb539604cb3eb69918e3a0d4, type: 3}
    - time: 2.5333333
      value: {fileID: 21300000, guid: 4ef877f6747a5964fa5a0807091e20c1, type: 3}
    - time: 2.5666666
      value: {fileID: 21300000, guid: 0a9b73014330a204388578ed64f77067, type: 3}
    - time: 2.6
      value: {fileID: 21300000, guid: 97e0d1f2b84099144a4eded64e2cb808, type: 3}
    - time: 2.6333334
      value: {fileID: 21300000, guid: b850d92f214466c49b2e4cecbede4605, type: 3}
    - time: 2.6666667
      value: {fileID: 21300000, guid: eb1d63ca783a15a45a3d55afe92878ec, type: 3}
    - time: 2.7
      value: {fileID: 21300000, guid: b171072fc0ad6204bb47462ee8ce71c9, type: 3}
    - time: 2.7333333
      value: {fileID: 21300000, guid: f63f642d61457a249bb685d9224032bf, type: 3}
    - time: 2.7666667
      value: {fileID: 21300000, guid: e353b1730d9d8a34391af32139f673e6, type: 3}
    - time: 2.8
      value: {fileID: 21300000, guid: f73ddc0ca0895f340a96b3dd0feacab2, type: 3}
    - time: 2.8333333
      value: {fileID: 21300000, guid: 7add3cfc30f1a9442812e490f3ed400f, type: 3}
    - time: 2.8666666
      value: {fileID: 21300000, guid: 295e481933f077e40b9fb857774348f4, type: 3}
    - time: 2.9
      value: {fileID: 21300000, guid: 440234b8f2c71774c9be0e0ddc2aab92, type: 3}
    - time: 2.9333334
      value: {fileID: 21300000, guid: dda12d7e7f7404a40b3a8d8e59958ac9, type: 3}
    - time: 2.9666667
      value: {fileID: 21300000, guid: 092709b479bb20d42b11e81aee630caa, type: 3}
    - time: 3
      value: {fileID: 21300000, guid: 6d46b2fbb379a224ba741b0db1aed787, type: 3}
    - time: 3.0333333
      value: {fileID: 21300000, guid: 377a7d9afa98e8f488b10f4f3f8f7d1f, type: 3}
    - time: 3.0666666
      value: {fileID: 21300000, guid: 6dd7c35946481934dbcea62e5fa8506e, type: 3}
    - time: 3.1
      value: {fileID: 21300000, guid: fba7813b5c698744cb6142f7aba2297f, type: 3}
    - time: 3.1333334
      value: {fileID: 21300000, guid: 0fe26e40de41bca498aab84bb143917f, type: 3}
    - time: 3.1666667
      value: {fileID: 21300000, guid: 6b5507f1712ff1f42b6798867abcd5b7, type: 3}
    - time: 3.2
      value: {fileID: 21300000, guid: fcecb4a5ca15e2b41af0a646655b6950, type: 3}
    - time: 3.2333333
      value: {fileID: 21300000, guid: a1cb89af036f74f4398c000f11963210, type: 3}
    - time: 3.2666667
      value: {fileID: 21300000, guid: 9776e11a603c8c842aeeeeaa227cadf9, type: 3}
    - time: 3.3
      value: {fileID: 21300000, guid: 857b43c735fa4b34e8d0f50a80760f62, type: 3}
    - time: 3.3333333
      value: {fileID: 21300000, guid: 9358522749242134b8e0f2ab72bf613f, type: 3}
    - time: 3.3666666
      value: {fileID: 21300000, guid: 92b54a4c5c5ed4a4385bfdb3da73c831, type: 3}
    - time: 3.4
      value: {fileID: 21300000, guid: 0fdfae7442abe0a4bbe5e3ca3a0c4861, type: 3}
    - time: 3.4333334
      value: {fileID: 21300000, guid: 1f4993b1f5391ab4f9f7fdd60aab743b, type: 3}
    - time: 3.4666667
      value: {fileID: 21300000, guid: 7fda1d26fa29c2948a15c40d664fd3f0, type: 3}
    - time: 3.5
      value: {fileID: 21300000, guid: 087a0d151bf52aa4fa322f2e37fef5ab, type: 3}
    - time: 3.5333333
      value: {fileID: 21300000, guid: aa4176fe8640f7d449d94829a549f46d, type: 3}
    - time: 3.5666666
      value: {fileID: 21300000, guid: bcef02b30f1798148b3b70e0aad76bd2, type: 3}
    - time: 3.6
      value: {fileID: 21300000, guid: 600edd7b001c97c448c4d04f854ae93a, type: 3}
    - time: 3.6333334
      value: {fileID: 21300000, guid: 8609456df1631b442b47bb49fe754752, type: 3}
    - time: 3.6666667
      value: {fileID: 21300000, guid: eeb509f6499f12043847ea45cb0ddcd0, type: 3}
    - time: 3.7
      value: {fileID: 21300000, guid: b903c02f2c894bd44bbe3f3a17297ac5, type: 3}
    - time: 3.7333333
      value: {fileID: 21300000, guid: 9448042b794a8f8419f276e6eee80cec, type: 3}
    - time: 3.7666667
      value: {fileID: 21300000, guid: 73d26887e0daa1a40bb5e28a4b4e490c, type: 3}
    - time: 3.8
      value: {fileID: 21300000, guid: c466b7d71efebe34ead22d60ab2d4e5f, type: 3}
    - time: 3.8333333
      value: {fileID: 21300000, guid: ccbb43c6c7a646a4889889e95e850ffe, type: 3}
    - time: 3.8666666
      value: {fileID: 21300000, guid: 70890cbcf44f518408cc9cfa1e776e58, type: 3}
    - time: 3.9
      value: {fileID: 21300000, guid: 2be2ce0549bd55c44b9f3abcd907021b, type: 3}
    - time: 3.9333334
      value: {fileID: 21300000, guid: 8fcc31647cbbf4b4382b3c7078470ec8, type: 3}
    - time: 3.9666667
      value: {fileID: 21300000, guid: c46469d4025c8ac4b97367bc3e075e5a, type: 3}
    - time: 4
      value: {fileID: 21300000, guid: 1d6f39341c2eff64283db67124dc2fff, type: 3}
    - time: 4.0333333
      value: {fileID: 21300000, guid: 1c65726c5aa036346b2f004b8ce127b7, type: 3}
    - time: 4.0666666
      value: {fileID: 21300000, guid: 91d19efdb06434942b1479e2a4179127, type: 3}
    attribute: m_Sprite
    path: 
    classID: 212
    script: {fileID: 0}
  m_SampleRate: 30
  m_WrapMode: 0
  m_Bounds:
    m_Center: {x: 0, y: 0, z: 0}
    m_Extent: {x: 0, y: 0, z: 0}
  m_ClipBindingConstant:
    genericBindings:
    - serializedVersion: 2
      path: 0
      attribute: 0
      script: {fileID: 0}
      typeID: 212
      customType: 23
      isPPtrCurve: 1
    pptrCurveMapping:
    - {fileID: 21300000, guid: 48367a3cfced8e944a10b3c64d1ee663, type: 3}
    - {fileID: 21300000, guid: 0b02a1ead50a63141895eebd5c94f396, type: 3}
    - {fileID: 21300000, guid: 7670fc857cc523449a1ffa64eb5486d1, type: 3}
    - {fileID: 21300000, guid: d201456a102285e48a6dc966f02feb2e, type: 3}
    - {fileID: 21300000, guid: 60e4e26647aa52d41a0f312303478c50, type: 3}
    - {fileID: 21300000, guid: efbd86e47fbdc3148ab918084f70bff0, type: 3}
    - {fileID: 21300000, guid: 899e6cd57bfc6f34c87250310f558e79, type: 3}
    - {fileID: 21300000, guid: 2d5ecb9893a477f4a863cf5baf79bc5f, type: 3}
    - {fileID: 21300000, guid: 908fba8b511f9a847890e48d06051970, type: 3}
    - {fileID: 21300000, guid: c22420dfeb490644f9e8c9b7849c024b, type: 3}
    - {fileID: 21300000, guid: 9192b165d94024c4ca508c9787933c1f, type: 3}
    - {fileID: 21300000, guid: d46daaa3bab871b4f85611e4064ca0bc, type: 3}
    - {fileID: 21300000, guid: 43bb2987b7cbe1347b6cffe32e86778f, type: 3}
    - {fileID: 21300000, guid: 570e8c5c02b485442b1752b9990e7665, type: 3}
    - {fileID: 21300000, guid: 68d2f4fada65e92428cd0cbc6097cffa, type: 3}
    - {fileID: 21300000, guid: dd90c92a928c43745b84b35ac64f0dcf, type: 3}
    - {fileID: 21300000, guid: 024e6d7b666e1174282f91906e6d71b3, type: 3}
    - {fileID: 21300000, guid: db686d4fef7c6c043964272a66b604e0, type: 3}
    - {fileID: 21300000, guid: c2c71e471646b274c83a4f0fa2b047d0, type: 3}
    - {fileID: 21300000, guid: c2c314be206172047a859eb46f56c134, type: 3}
    - {fileID: 21300000, guid: 4fc15c8866c4ca4438b640b8975589d1, type: 3}
    - {fileID: 21300000, guid: 5523638625871b340a8af77f3f8cbf91, type: 3}
    - {fileID: 21300000, guid: dc511f2d8b8f981449415952646816ba, type: 3}
    - {fileID: 21300000, guid: 11b6f999fef123948bf68a619486dd31, type: 3}
    - {fileID: 21300000, guid: 40343f0202fcce94399633e1157b1938, type: 3}
    - {fileID: 21300000, guid: 2e07a398e962d7940acdc05e45ef1840, type: 3}
    - {fileID: 21300000, guid: 3d8e17367a796ab46ab2a5a99fd1a20b, type: 3}
    - {fileID: 21300000, guid: 891bc936980ebb946be65632a7447745, type: 3}
    - {fileID: 21300000, guid: 85cd6362cb444b744a539c4d1f442192, type: 3}
    - {fileID: 21300000, guid: e5c9e662a54357d4baa5fe8fd08c37d0, type: 3}
    - {fileID: 21300000, guid: 750c36d6a7da3de4e8a1c9e247901fc7, type: 3}
    - {fileID: 21300000, guid: 79253358637f7ce45b7f6c2d7a4d61c2, type: 3}
    - {fileID: 21300000, guid: 4698800ca8cadea418aafe53b5f1463c, type: 3}
    - {fileID: 21300000, guid: c1b5f5e8495c97b41b528466d1baafbf, type: 3}
    - {fileID: 21300000, guid: c0fe45cf86a4b4044a6881b8dc1f1e64, type: 3}
    - {fileID: 21300000, guid: 6ed3feaf5da6a3e4d9a55a37c1db420e, type: 3}
    - {fileID: 21300000, guid: b6931cb895cd3d44ebc04c29b8e2a93a, type: 3}
    - {fileID: 21300000, guid: d5872547e1349be4492152286b58ac67, type: 3}
    - {fileID: 21300000, guid: 3bca57c6d3cde5745a1aadc423cacdf8, type: 3}
    - {fileID: 21300000, guid: 4806ff0941fc23943877ce2d7f26447e, type: 3}
    - {fileID: 21300000, guid: c1ae3c49ad58171408b7fc61bf421651, type: 3}
    - {fileID: 21300000, guid: 83f1dc5060707b8468eb79949dfd5f20, type: 3}
    - {fileID: 21300000, guid: 8083fc437ff5412419d14147e37ff601, type: 3}
    - {fileID: 21300000, guid: 38ff121cf4927b1448c037795116d35b, type: 3}
    - {fileID: 21300000, guid: 1e0b0113b24b6fa47bf39dd8d477e735, type: 3}
    - {fileID: 21300000, guid: e25e4d979f19c9a4f9f9fb604f44a90b, type: 3}
    - {fileID: 21300000, guid: 96fb19d5392bc3e42a7e89f8907f6b47, type: 3}
    - {fileID: 21300000, guid: 39a322c25259d60469083634b954a2ad, type: 3}
    - {fileID: 21300000, guid: ab706cd7be3bff24ea424ae081a16508, type: 3}
    - {fileID: 21300000, guid: e783d64d8e9a2a040b8d68e27407992f, type: 3}
    - {fileID: 21300000, guid: 469b1cccaaec69a46a472f869f5cc98c, type: 3}
    - {fileID: 21300000, guid: 768ab1bfe21733b4680bec3ad0df64e2, type: 3}
    - {fileID: 21300000, guid: 36281a407a55de74bb0fdfd487e733c0, type: 3}
    - {fileID: 21300000, guid: a0e693166e94a80459f48d765156ad66, type: 3}
    - {fileID: 21300000, guid: 8536d5193ed3787499bb9088da56f3d2, type: 3}
    - {fileID: 21300000, guid: 0b4f531dba481b645aab71dcfed603cd, type: 3}
    - {fileID: 21300000, guid: e5e550d941876d340bef2338211f1d66, type: 3}
    - {fileID: 21300000, guid: 57083f5783806854a977c328de59c399, type: 3}
    - {fileID: 21300000, guid: d4aa7b4e497a47d41b706a1fb63a487c, type: 3}
    - {fileID: 21300000, guid: 40ae2df0eb7c58d4897e9b7c933104b4, type: 3}
    - {fileID: 21300000, guid: 427fbc9d65682b143a575debed4c9ed0, type: 3}
    - {fileID: 21300000, guid: 731f917f8e71c0e4bb063fe572839bf3, type: 3}
    - {fileID: 21300000, guid: ddacde6d836e0764ab311375170c5851, type: 3}
    - {fileID: 21300000, guid: fd5e9604e4c549743a3b20431ca41e07, type: 3}
    - {fileID: 21300000, guid: ec73eda74dafc7e4190cb8d1f74e0d46, type: 3}
    - {fileID: 21300000, guid: a5fbcac1c9cfcfe4eaf145f5392f290f, type: 3}
    - {fileID: 21300000, guid: 9836d46077bb855489ad0ff80b0b7663, type: 3}
    - {fileID: 21300000, guid: 07f01bdb72cef8248ab1b4dce328edf7, type: 3}
    - {fileID: 21300000, guid: 6ea2a83257b2b2b42b9b27409d3fc27f, type: 3}
    - {fileID: 21300000, guid: f45f852397791a047ba1e78742bb1537, type: 3}
    - {fileID: 21300000, guid: 0862c6cc5c5cf2e41bb535c8487d712c, type: 3}
    - {fileID: 21300000, guid: ceff010a4c73d034fa375f10ecb95f74, type: 3}
    - {fileID: 21300000, guid: 33e06f0f85cb3ea418005ad0adbc8c1c, type: 3}
    - {fileID: 21300000, guid: e62a581d49cb71844b815012210cb7b0, type: 3}
    - {fileID: 21300000, guid: 3bd96e49080cc234eba73d26d2b9e3c5, type: 3}
    - {fileID: 21300000, guid: 966e9207cb539604cb3eb69918e3a0d4, type: 3}
    - {fileID: 21300000, guid: 4ef877f6747a5964fa5a0807091e20c1, type: 3}
    - {fileID: 21300000, guid: 0a9b73014330a204388578ed64f77067, type: 3}
    - {fileID: 21300000, guid: 97e0d1f2b84099144a4eded64e2cb808, type: 3}
    - {fileID: 21300000, guid: b850d92f214466c49b2e4cecbede4605, type: 3}
    - {fileID: 21300000, guid: eb1d63ca783a15a45a3d55afe92878ec, type: 3}
    - {fileID: 21300000, guid: b171072fc0ad6204bb47462ee8ce71c9, type: 3}
    - {fileID: 21300000, guid: f63f642d61457a249bb685d9224032bf, type: 3}
    - {fileID: 21300000, guid: e353b1730d9d8a34391af32139f673e6, type: 3}
    - {fileID: 21300000, guid: f73ddc0ca0895f340a96b3dd0feacab2, type: 3}
    - {fileID: 21300000, guid: 7add3cfc30f1a9442812e490f3ed400f, type: 3}
    - {fileID: 21300000, guid: 295e481933f077e40b9fb857774348f4, type: 3}
    - {fileID: 21300000, guid: 440234b8f2c71774c9be0e0ddc2aab92, type: 3}
    - {fileID: 21300000, guid: dda12d7e7f7404a40b3a8d8e59958ac9, type: 3}
    - {fileID: 21300000, guid: 092709b479bb20d42b11e81aee630caa, type: 3}
    - {fileID: 21300000, guid: 6d46b2fbb379a224ba741b0db1aed787, type: 3}
    - {fileID: 21300000, guid: 377a7d9afa98e8f488b10f4f3f8f7d1f, type: 3}
    - {fileID: 21300000, guid: 6dd7c35946481934dbcea62e5fa8506e, type: 3}
    - {fileID: 21300000, guid: fba7813b5c698744cb6142f7aba2297f, type: 3}
    - {fileID: 21300000, guid: 0fe26e40de41bca498aab84bb143917f, type: 3}
    - {fileID: 21300000, guid: 6b5507f1712ff1f42b6798867abcd5b7, type: 3}
    - {fileID: 21300000, guid: fcecb4a5ca15e2b41af0a646655b6950, type: 3}
    - {fileID: 21300000, guid: a1cb89af036f74f4398c000f11963210, type: 3}
    - {fileID: 21300000, guid: 9776e11a603c8c842aeeeeaa227cadf9, type: 3}
    - {fileID: 21300000, guid: 857b43c735fa4b34e8d0f50a80760f62, type: 3}
    - {fileID: 21300000, guid: 9358522749242134b8e0f2ab72bf613f, type: 3}
    - {fileID: 21300000, guid: 92b54a4c5c5ed4a4385bfdb3da73c831, type: 3}
    - {fileID: 21300000, guid: 0fdfae7442abe0a4bbe5e3ca3a0c4861, type: 3}
    - {fileID: 21300000, guid: 1f4993b1f5391ab4f9f7fdd60aab743b, type: 3}
    - {fileID: 21300000, guid: 7fda1d26fa29c2948a15c40d664fd3f0, type: 3}
    - {fileID: 21300000, guid: 087a0d151bf52aa4fa322f2e37fef5ab, type: 3}
    - {fileID: 21300000, guid: aa4176fe8640f7d449d94829a549f46d, type: 3}
    - {fileID: 21300000, guid: bcef02b30f1798148b3b70e0aad76bd2, type: 3}
    - {fileID: 21300000, guid: 600edd7b001c97c448c4d04f854ae93a, type: 3}
    - {fileID: 21300000, guid: 8609456df1631b442b47bb49fe754752, type: 3}
    - {fileID: 21300000, guid: eeb509f6499f12043847ea45cb0ddcd0, type: 3}
    - {fileID: 21300000, guid: b903c02f2c894bd44bbe3f3a17297ac5, type: 3}
    - {fileID: 21300000, guid: 9448042b794a8f8419f276e6eee80cec, type: 3}
    - {fileID: 21300000, guid: 73d26887e0daa1a40bb5e28a4b4e490c, type: 3}
    - {fileID: 21300000, guid: c466b7d71efebe34ead22d60ab2d4e5f, type: 3}
    - {fileID: 21300000, guid: ccbb43c6c7a646a4889889e95e850ffe, type: 3}
    - {fileID: 21300000, guid: 70890cbcf44f518408cc9cfa1e776e58, type: 3}
    - {fileID: 21300000, guid: 2be2ce0549bd55c44b9f3abcd907021b, type: 3}
    - {fileID: 21300000, guid: 8fcc31647cbbf4b4382b3c7078470ec8, type: 3}
    - {fileID: 21300000, guid: c46469d4025c8ac4b97367bc3e075e5a, type: 3}
    - {fileID: 21300000, guid: 1d6f39341c2eff64283db67124dc2fff, type: 3}
    - {fileID: 21300000, guid: 1c65726c5aa036346b2f004b8ce127b7, type: 3}
    - {fileID: 21300000, guid: 91d19efdb06434942b1479e2a4179127, type: 3}
  m_AnimationClipSettings:
    serializedVersion: 2
    m_AdditiveReferencePoseClip: {fileID: 0}
    m_AdditiveReferencePoseTime: 0
    m_StartTime: 0
    m_StopTime: 4.1
    m_OrientationOffsetY: 0
    m_Level: 0
    m_CycleOffset: 0
    m_HasAdditiveReferencePose: 0
    m_LoopTime: 1
    m_LoopBlend: 0
    m_LoopBlendOrientation: 0
    m_LoopBlendPositionY: 0
    m_LoopBlendPositionXZ: 0
    m_KeepOriginalOrientation: 0
    m_KeepOriginalPositionY: 1
    m_KeepOriginalPositionXZ: 0
    m_HeightFromFeet: 0
    m_Mirror: 0
  m_EditorCurves: []
  m_EulerEditorCurves: []
  m_HasGenericRootTransform: 0
  m_HasMotionFloatCurves: 0
  m_Events: []
